<svg width="24" height="24" viewBox="0 0 24 24" fill="none" xmlns="http://www.w3.org/2000/svg">
<g id="icon/communication/chat_24px">
<path id="icon/communication/chat_24px_2" fill-rule="evenodd" clip-rule="evenodd" d="M4 2C2.90002 2 2.01001 2.89999 2.01001 4L2 22L6 18H20C21.1 18 22 17.1 22 16V4C22 2.89999 21.1 2 20 2H4ZM4 4H20V16H5.16998L4 17.17V4ZM14 12H6V14H14V12ZM6 9H18V11H6V9ZM18 6H6V8H18V6Z" fill="black" fill-opacity="0.54"/>
</g>
</svg>
