<svg width="24" height="24" viewBox="0 0 24 24" fill="none" xmlns="http://www.w3.org/2000/svg">
<g id="icon/av/pause_24px">
<path id="icon/av/pause_24px_2" fill-rule="evenodd" clip-rule="evenodd" d="M10 19H6V5H10V19ZM14 19V5H18V19H14Z" fill="black" fill-opacity="0.54"/>
</g>
</svg>
