<svg width="24" height="24" viewBox="0 0 24 24" fill="none" xmlns="http://www.w3.org/2000/svg">
<g id="icon/av/volume_down_24px">
<path id="icon/av/volume_down_24px_2" fill-rule="evenodd" clip-rule="evenodd" d="M5.25 9V15H9.25L14.25 20V4L9.25 9H5.25ZM16.25 7.97V16.02C17.73 15.29 18.75 13.77 18.75 12C18.75 10.23 17.73 8.71 16.25 7.97ZM12.25 15.17V8.83L10.08 11H7.25V13H10.08L12.25 15.17Z" fill="black" fill-opacity="0.54"/>
</g>
</svg>
